"Alias","Como","Quiero","Para","Criterios de aceptacion","Prioridad","Estimacion","Estatus","relleno","relleno","relleno"
"publicar","Empresa","Hacer publicaciones de almenos 1500  caractes, 
y que esta publicaciones tenga un texto enrriquesido","(Generar contenido auspisiado) Para publicar diversos temas
de interes, que  un actual cliente o futuro entienda mejor que
quiere o que le conviene adquirir.","El formulario de publicacion pedira los siguientes campos
  1. Titulo
  2. Imagen minuatura
  3. Cuerpo de la publicacion
  4. Palabras clave
El cuarpo de la una publicacion debe poder tener
  1. Negritas, subrrallados, titulos, subtitulos
  2. Imagenes, Videos, Enlaces","Muy Alta","2 dias",,,,
"Administrar publicaciones","Empresa","Un lugar donde organizar todas mis publicaciones","Administrar mis publicaciones","Se Podran realizar las siguientes tareas
1. Ver todas las publicaciones
2. Ocultar o mostrar una publicacion al usuario
3. Modificar una publicacion
4. Eliminar una publicacion","Muy Alta","3 dias",,,,