<mxfile host="65bd71144e" modified="2021-02-07T01:47:27.013Z" agent="5.0 (Windows NT 10.0; Win64; x64) AppleWebKit/537.36 (KHTML, like Gecko) Code/1.53.0 Chrome/87.0.4280.141 Electron/11.2.1 Safari/537.36" etag="deiAVMnbP59RqSZtf0Z4" version="14.2.4" type="embed">
    <diagram id="MBElBsalsoNbB0Dhh9Un" name="Page-1">
        <mxGraphModel dx="2351" dy="1326" grid="0" gridSize="10" guides="1" tooltips="1" connect="1" arrows="1" fold="1" page="1" pageScale="1" pageWidth="1600" pageHeight="900" math="0" shadow="0">
            <root>
                <mxCell id="0"/>
                <mxCell id="1" parent="0"/>
                <mxCell id="97" value="Como Buscar (ctrl+f)&lt;br&gt;-&amp;nbsp; &amp;nbsp;&quot;&lt;font color=&quot;#99ff99&quot; size=&quot;1&quot;&gt;&lt;b style=&quot;font-size: 13px&quot;&gt;\shtml\s&lt;/b&gt;&lt;/font&gt;&quot;: Para buscar palabra sin importar el lugar" style="html=1;fontColor=#f0f0f0;align=left;" vertex="1" parent="1">
                    <mxGeometry x="-137" y="96" width="332" height="60" as="geometry"/>
                </mxCell>
                <mxCell id="8" style="edgeStyle=none;rounded=0;orthogonalLoop=1;jettySize=auto;html=1;entryX=0.5;entryY=1;entryDx=0;entryDy=0;fontColor=#f0f0f0;jumpSize=6;strokeWidth=5;fillColor=#647687;strokeColor=#314354;" parent="1" source="2" target="7" edge="1">
                    <mxGeometry relative="1" as="geometry"/>
                </mxCell>
                <mxCell id="11" style="edgeStyle=none;rounded=0;orthogonalLoop=1;jettySize=auto;html=1;entryX=0.5;entryY=1;entryDx=0;entryDy=0;fontColor=#f0f0f0;jumpSize=6;strokeWidth=5;fillColor=#647687;strokeColor=#314354;" parent="1" source="2" target="10" edge="1">
                    <mxGeometry relative="1" as="geometry"/>
                </mxCell>
                <mxCell id="22" style="edgeStyle=none;rounded=0;orthogonalLoop=1;jettySize=auto;html=1;fontColor=#f0f0f0;jumpSize=6;strokeWidth=5;fillColor=#647687;strokeColor=#314354;" parent="1" source="2" target="19" edge="1">
                    <mxGeometry relative="1" as="geometry"/>
                </mxCell>
                <mxCell id="25" style="edgeStyle=none;rounded=0;orthogonalLoop=1;jettySize=auto;html=1;fontSize=16;fontColor=#f0f0f0;jumpSize=6;strokeWidth=5;fillColor=#647687;strokeColor=#314354;" parent="1" source="2" target="24" edge="1">
                    <mxGeometry relative="1" as="geometry"/>
                </mxCell>
                <mxCell id="51" style="rounded=0;orthogonalLoop=1;jettySize=auto;html=1;jumpSize=6;strokeWidth=5;fillColor=#647687;strokeColor=#314354;" parent="1" source="2" target="50" edge="1">
                    <mxGeometry relative="1" as="geometry"/>
                </mxCell>
                <mxCell id="58" style="edgeStyle=none;rounded=0;orthogonalLoop=1;jettySize=auto;html=1;entryX=0.775;entryY=0.922;entryDx=0;entryDy=0;fontColor=#f0f0f0;entryPerimeter=0;jumpSize=6;strokeWidth=5;fillColor=#647687;strokeColor=#314354;" parent="1" source="2" target="55" edge="1">
                    <mxGeometry relative="1" as="geometry"/>
                </mxCell>
                <mxCell id="66" style="edgeStyle=none;rounded=0;orthogonalLoop=1;jettySize=auto;html=1;fontColor=#f0f0f0;entryX=1;entryY=0.5;entryDx=0;entryDy=0;jumpSize=6;strokeWidth=5;fillColor=#647687;strokeColor=#314354;" parent="1" source="2" target="65" edge="1">
                    <mxGeometry relative="1" as="geometry">
                        <mxPoint x="-351" y="276" as="targetPoint"/>
                    </mxGeometry>
                </mxCell>
                <mxCell id="80" style="edgeStyle=none;rounded=0;orthogonalLoop=1;jettySize=auto;html=1;fontColor=#f0f0f0;entryX=1;entryY=0.5;entryDx=0;entryDy=0;jumpSize=6;strokeWidth=5;fillColor=#647687;strokeColor=#314354;" parent="1" source="2" target="81" edge="1">
                    <mxGeometry relative="1" as="geometry">
                        <mxPoint x="-482" y="0.5" as="targetPoint"/>
                    </mxGeometry>
                </mxCell>
                <mxCell id="2" value="Gatsby de Cero &#10;a Experto" style="ellipse;fontStyle=1;fontSize=20;" parent="1" vertex="1">
                    <mxGeometry x="-91" y="-68" width="182.34" height="137" as="geometry"/>
                </mxCell>
                <mxCell id="3" value="como funciona la navegacion" style="text;verticalAlign=middle;align=center;" parent="1" vertex="1">
                    <mxGeometry x="-84.83" y="-502" width="170" height="18" as="geometry"/>
                </mxCell>
                <mxCell id="6" value="Crear layout" style="text;fontColor=#f0f0f0;align=center;verticalAlign=middle;" parent="1" vertex="1">
                    <mxGeometry x="289" y="-367" width="80" height="20" as="geometry"/>
                </mxCell>
                <mxCell id="9" style="edgeStyle=none;rounded=0;orthogonalLoop=1;jettySize=auto;html=1;entryX=0.5;entryY=1;entryDx=0;entryDy=0;fontColor=#f0f0f0;" parent="1" source="7" target="3" edge="1">
                    <mxGeometry relative="1" as="geometry"/>
                </mxCell>
                <mxCell id="16" style="edgeStyle=none;rounded=0;orthogonalLoop=1;jettySize=auto;html=1;entryX=0;entryY=1;entryDx=0;entryDy=0;fontColor=#f0f0f0;" parent="1" source="7" target="15" edge="1">
                    <mxGeometry relative="1" as="geometry"/>
                </mxCell>
                <mxCell id="89" style="edgeStyle=none;rounded=0;orthogonalLoop=1;jettySize=auto;html=1;entryX=0;entryY=0.5;entryDx=0;entryDy=0;fontColor=#f0f0f0;" edge="1" parent="1" source="7" target="87">
                    <mxGeometry relative="1" as="geometry"/>
                </mxCell>
                <mxCell id="7" value="Interaccion" style="ellipse;fontSize=16;fontStyle=1;align=center;verticalAlign=middle;" parent="1" vertex="1">
                    <mxGeometry x="-64.83" y="-400" width="130" height="46" as="geometry"/>
                </mxCell>
                <mxCell id="12" style="edgeStyle=none;rounded=0;orthogonalLoop=1;jettySize=auto;html=1;entryX=0.5;entryY=1;entryDx=0;entryDy=0;fontColor=#f0f0f0;" parent="1" source="10" target="6" edge="1">
                    <mxGeometry relative="1" as="geometry"/>
                </mxCell>
                <mxCell id="14" style="edgeStyle=none;rounded=0;orthogonalLoop=1;jettySize=auto;html=1;entryX=0;entryY=1;entryDx=0;entryDy=0;fontColor=#f0f0f0;" parent="1" source="10" target="13" edge="1">
                    <mxGeometry relative="1" as="geometry"/>
                </mxCell>
                <mxCell id="38" style="edgeStyle=none;rounded=0;orthogonalLoop=1;jettySize=auto;html=1;entryX=0;entryY=0.5;entryDx=0;entryDy=0;fontSize=12;" parent="1" source="10" target="37" edge="1">
                    <mxGeometry relative="1" as="geometry"/>
                </mxCell>
                <mxCell id="39" style="edgeStyle=none;rounded=0;orthogonalLoop=1;jettySize=auto;html=1;entryX=0;entryY=0.5;entryDx=0;entryDy=0;fontSize=12;" parent="1" source="10" target="30" edge="1">
                    <mxGeometry relative="1" as="geometry"/>
                </mxCell>
                <mxCell id="40" style="edgeStyle=none;rounded=0;orthogonalLoop=1;jettySize=auto;html=1;entryX=0;entryY=0.5;entryDx=0;entryDy=0;fontSize=12;" parent="1" source="10" target="35" edge="1">
                    <mxGeometry relative="1" as="geometry"/>
                </mxCell>
                <mxCell id="42" style="edgeStyle=none;rounded=0;orthogonalLoop=1;jettySize=auto;html=1;entryX=0;entryY=0.5;entryDx=0;entryDy=0;fontSize=12;fontColor=#f0f0f0;" parent="1" source="10" target="41" edge="1">
                    <mxGeometry relative="1" as="geometry"/>
                </mxCell>
                <mxCell id="48" style="edgeStyle=none;rounded=0;orthogonalLoop=1;jettySize=auto;html=1;entryX=0.114;entryY=0.111;entryDx=0;entryDy=0;fontColor=#f0f0f0;entryPerimeter=0;" parent="1" source="10" target="46" edge="1">
                    <mxGeometry relative="1" as="geometry"/>
                </mxCell>
                <mxCell id="75" style="edgeStyle=none;rounded=0;orthogonalLoop=1;jettySize=auto;html=1;entryX=0;entryY=0;entryDx=0;entryDy=0;fontColor=#f0f0f0;" parent="1" source="10" target="74" edge="1">
                    <mxGeometry relative="1" as="geometry"/>
                </mxCell>
                <mxCell id="76" style="edgeStyle=none;rounded=0;orthogonalLoop=1;jettySize=auto;html=1;entryX=0.325;entryY=0;entryDx=0;entryDy=0;entryPerimeter=0;fontColor=#f0f0f0;" parent="1" source="10" target="73" edge="1">
                    <mxGeometry relative="1" as="geometry"/>
                </mxCell>
                <mxCell id="86" style="edgeStyle=none;rounded=0;orthogonalLoop=1;jettySize=auto;html=1;entryX=0.5;entryY=0;entryDx=0;entryDy=0;" parent="1" source="10" target="84" edge="1">
                    <mxGeometry relative="1" as="geometry"/>
                </mxCell>
                <mxCell id="95" style="edgeStyle=none;rounded=0;jumpSize=6;orthogonalLoop=1;jettySize=auto;html=1;strokeWidth=1;fontColor=#f0f0f0;" edge="1" parent="1" source="10" target="94">
                    <mxGeometry relative="1" as="geometry"/>
                </mxCell>
                <mxCell id="10" value="UI" style="ellipse;fontSize=16;fontStyle=1;align=center;verticalAlign=middle;" parent="1" vertex="1">
                    <mxGeometry x="283" y="-287" width="90" height="30" as="geometry"/>
                </mxCell>
                <mxCell id="13" value="uso de css" style="text;fontColor=#f0f0f0;align=center;verticalAlign=middle;" parent="1" vertex="1">
                    <mxGeometry x="366" y="-350" width="71" height="18" as="geometry"/>
                </mxCell>
                <mxCell id="15" value="uso de links" style="text;verticalAlign=middle;align=center;" parent="1" vertex="1">
                    <mxGeometry x="43" y="-476" width="77" height="18" as="geometry"/>
                </mxCell>
                <mxCell id="17" style="edgeStyle=none;rounded=0;orthogonalLoop=1;jettySize=auto;html=1;exitX=0.75;exitY=1;exitDx=0;exitDy=0;fontColor=#f0f0f0;" parent="1" source="15" target="15" edge="1">
                    <mxGeometry relative="1" as="geometry"/>
                </mxCell>
                <mxCell id="18" value="uso de graphql" style="text;fontColor=#f0f0f0;align=center;verticalAlign=middle;" parent="1" vertex="1">
                    <mxGeometry x="361" y="-111" width="93" height="18" as="geometry"/>
                </mxCell>
                <mxCell id="21" style="edgeStyle=none;rounded=0;orthogonalLoop=1;jettySize=auto;html=1;entryX=0.5;entryY=1;entryDx=0;entryDy=0;fontColor=#f0f0f0;" parent="1" source="19" target="18" edge="1">
                    <mxGeometry relative="1" as="geometry"/>
                </mxCell>
                <mxCell id="78" style="edgeStyle=none;rounded=0;orthogonalLoop=1;jettySize=auto;html=1;entryX=0.25;entryY=1;entryDx=0;entryDy=0;fontColor=#f0f0f0;" parent="1" source="19" target="77" edge="1">
                    <mxGeometry relative="1" as="geometry"/>
                </mxCell>
                <mxCell id="19" value="Consultar&#10;Info" style="ellipse;fontSize=16;fontStyle=1;align=center;verticalAlign=middle;" parent="1" vertex="1">
                    <mxGeometry x="344" y="-26" width="127" height="49" as="geometry"/>
                </mxCell>
                <mxCell id="23" value="agregar seo etiquetas meta, uso de seo" style="text;fontSize=12;fontColor=#f0f0f0;align=center;verticalAlign=middle;" parent="1" vertex="1">
                    <mxGeometry x="304" y="163" width="230" height="18" as="geometry"/>
                </mxCell>
                <mxCell id="26" style="edgeStyle=none;rounded=0;orthogonalLoop=1;jettySize=auto;html=1;entryX=0.5;entryY=1;entryDx=0;entryDy=0;fontSize=16;fontColor=#f0f0f0;" parent="1" source="24" target="23" edge="1">
                    <mxGeometry relative="1" as="geometry"/>
                </mxCell>
                <mxCell id="29" style="edgeStyle=none;rounded=0;orthogonalLoop=1;jettySize=auto;html=1;entryX=0;entryY=0.75;entryDx=0;entryDy=0;" parent="1" source="24" target="27" edge="1">
                    <mxGeometry relative="1" as="geometry"/>
                </mxCell>
                <mxCell id="45" style="edgeStyle=none;rounded=0;orthogonalLoop=1;jettySize=auto;html=1;entryX=0;entryY=0.5;entryDx=0;entryDy=0;fontSize=12;fontColor=#f0f0f0;" parent="1" source="24" target="44" edge="1">
                    <mxGeometry relative="1" as="geometry"/>
                </mxCell>
                <mxCell id="24" value="Otros" style="ellipse;fontSize=16;fontStyle=1;align=center;verticalAlign=middle;" parent="1" vertex="1">
                    <mxGeometry x="354.5" y="272" width="127" height="49" as="geometry"/>
                </mxCell>
                <mxCell id="27" value="Definir los props de componente" style="text;align=center;verticalAlign=middle;" parent="1" vertex="1">
                    <mxGeometry x="505" y="189" width="188" height="18" as="geometry"/>
                </mxCell>
                <mxCell id="30" value="uso de bootstrap" style="text;fontSize=12;align=center;verticalAlign=middle;" parent="1" vertex="1">
                    <mxGeometry x="439" y="-281" width="106" height="18" as="geometry"/>
                </mxCell>
                <mxCell id="35" value="uso de sass" style="text;fontSize=12;verticalAlign=middle;align=center;" parent="1" vertex="1">
                    <mxGeometry x="430" y="-253" width="77" height="18" as="geometry"/>
                </mxCell>
                <mxCell id="37" value="Uso de imagenes" style="text;fontSize=12;align=center;verticalAlign=middle;" parent="1" vertex="1">
                    <mxGeometry x="404" y="-327" width="96" height="18" as="geometry"/>
                </mxCell>
                <mxCell id="41" value="Uso de imagenes optimizado por gatsby" style="text;fontSize=12;align=center;verticalAlign=middle;" parent="1" vertex="1">
                    <mxGeometry x="416" y="-305" width="232" height="18" as="geometry"/>
                </mxCell>
                <mxCell id="44" value="instalar plugin" style="text;fontSize=12;fontColor=#f0f0f0;align=center;verticalAlign=middle;" parent="1" vertex="1">
                    <mxGeometry x="534" y="219" width="88" height="18" as="geometry"/>
                </mxCell>
                <mxCell id="46" value="uso de svg" style="text;align=center;verticalAlign=middle;" parent="1" vertex="1">
                    <mxGeometry x="398" y="-204" width="70" height="18" as="geometry"/>
                </mxCell>
                <mxCell id="49" value="evitar problemas con variable window" style="text;verticalAlign=middle;align=center;" parent="1" vertex="1">
                    <mxGeometry x="-107.82999999999998" y="438" width="216" height="18" as="geometry"/>
                </mxCell>
                <mxCell id="52" style="edgeStyle=none;rounded=0;orthogonalLoop=1;jettySize=auto;html=1;entryX=0.5;entryY=0;entryDx=0;entryDy=0;fontColor=#f0f0f0;" parent="1" source="50" target="49" edge="1">
                    <mxGeometry relative="1" as="geometry"/>
                </mxCell>
                <mxCell id="50" value="Build a Prod" style="ellipse;fontSize=16;fontStyle=1;align=center;verticalAlign=middle;" parent="1" vertex="1">
                    <mxGeometry x="-63.33000000000001" y="292" width="127" height="49" as="geometry"/>
                </mxCell>
                <mxCell id="59" style="edgeStyle=none;rounded=0;orthogonalLoop=1;jettySize=auto;html=1;entryX=0.5;entryY=1;entryDx=0;entryDy=0;fontColor=#f0f0f0;" parent="1" source="55" target="57" edge="1">
                    <mxGeometry relative="1" as="geometry"/>
                </mxCell>
                <mxCell id="55" value="Proyectos" style="ellipse;fontSize=16;fontStyle=1;align=center;verticalAlign=middle;" parent="1" vertex="1">
                    <mxGeometry x="-434" y="-257" width="130" height="46" as="geometry"/>
                </mxCell>
                <mxCell id="57" value="Portafolio" style="text;verticalAlign=middle;align=center;" parent="1" vertex="1">
                    <mxGeometry x="-400" y="-380" width="62" height="18" as="geometry"/>
                </mxCell>
                <mxCell id="61" value="crear modelos en strapi" style="text;align=center;verticalAlign=middle;" parent="1" vertex="1">
                    <mxGeometry x="-501.99823529411753" y="165.00411764705876" width="141" height="18" as="geometry"/>
                </mxCell>
                <mxCell id="64" value="Agregar CKEditor en Strapi" style="text;fontColor=#f0f0f0;align=center;verticalAlign=middle;" parent="1" vertex="1">
                    <mxGeometry x="-623" y="188.99666666666675" width="157" height="18" as="geometry"/>
                </mxCell>
                <mxCell id="67" style="edgeStyle=none;rounded=0;orthogonalLoop=1;jettySize=auto;html=1;entryX=0.5;entryY=1;entryDx=0;entryDy=0;fontSize=17;fontColor=#f0f0f0;" parent="1" source="65" target="61" edge="1">
                    <mxGeometry relative="1" as="geometry"/>
                </mxCell>
                <mxCell id="68" style="edgeStyle=none;rounded=0;orthogonalLoop=1;jettySize=auto;html=1;entryX=0.713;entryY=1.278;entryDx=0;entryDy=0;entryPerimeter=0;fontSize=17;fontColor=#f0f0f0;" parent="1" source="65" target="64" edge="1">
                    <mxGeometry relative="1" as="geometry"/>
                </mxCell>
                <mxCell id="71" style="edgeStyle=none;rounded=0;orthogonalLoop=1;jettySize=auto;html=1;entryX=0.75;entryY=1;entryDx=0;entryDy=0;" parent="1" source="65" target="69" edge="1">
                    <mxGeometry relative="1" as="geometry"/>
                </mxCell>
                <mxCell id="65" value="Strapi" style="ellipse;fontSize=17;fontStyle=1;align=center;verticalAlign=middle;" parent="1" vertex="1">
                    <mxGeometry x="-495" y="248" width="127" height="49" as="geometry"/>
                </mxCell>
                <mxCell id="69" value="Conectar Strapi con Gatsby" style="text;align=center;verticalAlign=middle;" parent="1" vertex="1">
                    <mxGeometry x="-697" y="216" width="159" height="18" as="geometry"/>
                </mxCell>
                <mxCell id="73" value="uso de semanticUI" style="text;align=center;verticalAlign=middle;" parent="1" vertex="1">
                    <mxGeometry x="355" y="-179" width="114" height="18" as="geometry"/>
                </mxCell>
                <mxCell id="74" value="Uso de Sass global" style="text;align=center;verticalAlign=middle;" parent="1" vertex="1">
                    <mxGeometry x="426" y="-225" width="119" height="18" as="geometry"/>
                </mxCell>
                <mxCell id="77" value="consultar todos los registros&#10;de una coleccion" style="text;align=center;verticalAlign=middle;" parent="1" vertex="1">
                    <mxGeometry x="462" y="-93" width="184" height="34" as="geometry"/>
                </mxCell>
                <mxCell id="79" value="generar paginacion estatica" style="text;fontColor=#f0f0f0;align=center;verticalAlign=middle;" parent="1" vertex="1">
                    <mxGeometry x="-668" y="-153" width="163" height="18" as="geometry"/>
                </mxCell>
                <mxCell id="83" style="edgeStyle=none;rounded=0;orthogonalLoop=1;jettySize=auto;html=1;entryX=0.5;entryY=1;entryDx=0;entryDy=0;fontColor=#f0f0f0;" parent="1" source="81" target="79" edge="1">
                    <mxGeometry relative="1" as="geometry"/>
                </mxCell>
                <mxCell id="93" style="edgeStyle=none;rounded=0;orthogonalLoop=1;jettySize=auto;html=1;entryX=0.25;entryY=1;entryDx=0;entryDy=0;fontColor=#f0f0f0;" edge="1" parent="1" source="81" target="91">
                    <mxGeometry relative="1" as="geometry"/>
                </mxCell>
                <mxCell id="81" value="Generacion de &#10;estaticos" style="ellipse;fontSize=17;fontStyle=1;align=center;verticalAlign=middle;" parent="1" vertex="1">
                    <mxGeometry x="-660" y="-32.5" width="146" height="62" as="geometry"/>
                </mxCell>
                <mxCell id="84" value="formatear fecha" style="text;align=center;verticalAlign=middle;" parent="1" vertex="1">
                    <mxGeometry x="280" y="-157" width="96" height="18" as="geometry"/>
                </mxCell>
                <mxCell id="87" value="navegar para recorrer&#10;una paginacion" style="text;align=center;verticalAlign=middle;" vertex="1" parent="1">
                    <mxGeometry x="87" y="-449" width="128" height="32" as="geometry"/>
                </mxCell>
                <mxCell id="91" value="generar pagina estatica" style="text;align=center;verticalAlign=middle;" vertex="1" parent="1">
                    <mxGeometry x="-556" y="-123" width="140" height="18" as="geometry"/>
                </mxCell>
                <mxCell id="94" value="agregar html en variable &#10;a nuestro html" style="text;align=center;verticalAlign=middle;" vertex="1" parent="1">
                    <mxGeometry x="167" y="-341" width="146" height="32" as="geometry"/>
                </mxCell>
            </root>
        </mxGraphModel>
    </diagram>
</mxfile>